{
  "name": "delete",
  "css_prefix_text": "icon-",
  "css_use_suffix": false,
  "hinting": true,
  "units_per_em": 1000,
  "ascent": 850,
  "glyphs": [
    {
      "uid": "d35a1d35efeb784d1dc9ac18b9b6c2b6",
      "css": "pencil",
      "code": 59392,
      "src": "fontawesome"
    },
    {
      "uid": "z18zsyvbrpsea0f49kd61kkue1ofsafy",
      "css": "trash",
      "code": 59393,
      "src": "modernpics"
    }
  ]
}